<?xml version="1.0" encoding="iso-8859-1"?>
<!-- Generator: Adobe Illustrator 18.0.0, SVG Export Plug-In . SVG Version: 6.00 Build 0)  -->
<!DOCTYPE svg PUBLIC "-//W3C//DTD SVG 1.1//EN" "http://www.w3.org/Graphics/SVG/1.1/DTD/svg11.dtd">
<svg xmlns="http://www.w3.org/2000/svg" xmlns:xlink="http://www.w3.org/1999/xlink" version="1.1" id="Capa_1" x="0px" y="0px" viewBox="0 0 317.752 317.752" style="enable-background:new 0 0 317.752 317.752;" xml:space="preserve" width="512px" height="512px">
<g>
	<polygon points="193.234,96.233 158.876,130.591 124.519,96.233 96.234,124.519 130.591,158.876 96.234,193.233 124.519,221.519    158.876,187.161 193.234,221.519 221.519,193.233 187.162,158.876 221.519,124.519  " fill="#D80027"/>
	<path d="M8.519,0v317.752h300.714V0H8.519z M158.876,274.646c-63.985,0-115.77-51.778-115.77-115.77   c0-63.985,51.778-115.77,115.77-115.77c63.986,0,115.77,51.779,115.77,115.77C274.646,222.862,222.867,274.646,158.876,274.646z" fill="#D80027"/>
</g>
<g>
</g>
<g>
</g>
<g>
</g>
<g>
</g>
<g>
</g>
<g>
</g>
<g>
</g>
<g>
</g>
<g>
</g>
<g>
</g>
<g>
</g>
<g>
</g>
<g>
</g>
<g>
</g>
<g>
</g>
</svg>
